<?xml version="1.0" encoding="UTF-8"?>
<!-- Generator: Adobe Illustrator 15.0.2, SVG Export Plug-In . SVG Version: 6.00 Build 0)  -->
<!DOCTYPE svg PUBLIC "-//W3C//DTD SVG 1.1//EN" "http://www.w3.org/Graphics/SVG/1.1/DTD/svg11.dtd">
<svg xmlns="http://www.w3.org/2000/svg" xmlns:xlink="http://www.w3.org/1999/xlink" version="1.1" id="Layer_1" x="0px" y="0px" width="512px" height="485.416px" viewBox="-0.328 0 512 485.416" enable-background="new -0.328 0 512 485.416" xml:space="preserve">
<g>
	<path d="M489.981,80.354H377.84V13.56C377.84,6.07,371.77,0,364.28,0H147.084c-7.494,0-13.56,6.07-13.56,13.56v66.794H21.367   c-11.981,0-21.695,9.714-21.695,21.695v254.896c0,11.981,9.714,21.695,21.695,21.695h85.107l-13.448,88.047   c-0.715,4.693,0.651,9.46,3.734,13.052c3.093,3.602,7.595,5.678,12.341,5.678h293.135c0,0,0.085,0,0.111,0   c8.983,0,16.271-7.294,16.271-16.271c0-1.488-0.201-2.945-0.571-4.322l-13.173-86.183h85.102c11.981,0,21.695-9.714,21.695-21.695   V102.049C511.677,90.067,501.963,80.354,489.981,80.354z M160.643,27.119H350.72v53.234H160.643V27.119z M128.058,452.889   l22.146-144.971h210.951l22.146,144.971H128.058z M468.287,335.249h-70.044l-7.034-46.06c-1.218-7.945-8.046-13.814-16.086-13.814   H136.236c-8.035,0-14.873,5.869-16.091,13.814l-7.034,46.06H43.062V123.744h425.219v211.505H468.287z" fill="#FFFFFF"/>
	<path d="M117.995,196.055h52.517c8.983,0,16.271-7.283,16.271-16.271c0-8.986-7.288-16.271-16.271-16.271h-52.517   c-8.983,0-16.271,7.285-16.271,16.271C101.723,188.771,109.006,196.055,117.995,196.055z" fill="#FFFFFF"/>
</g>
</svg>
